<?xml version="1.0" encoding="UTF-8" standalone="no"?>
<svg
   xmlns:dc="http://purl.org/dc/elements/1.1/"
   xmlns:cc="http://creativecommons.org/ns#"
   xmlns:rdf="http://www.w3.org/1999/02/22-rdf-syntax-ns#"
   xmlns:svg="http://www.w3.org/2000/svg"
   xmlns="http://www.w3.org/2000/svg"
   viewBox="0 0 62 57"
   height="57"
   width="62"
   id="svg373"
   version="1.1">
  <metadata
     id="metadata379">
    <rdf:RDF>
      <cc:Work
         rdf:about="">
        <dc:format>image/svg+xml</dc:format>
        <dc:type
           rdf:resource="http://purl.org/dc/dcmitype/StillImage" />
        <dc:title></dc:title>
      </cc:Work>
    </rdf:RDF>
  </metadata>
  <defs
     id="defs377" />
  <g
     id="g395">
    <path
       id="path383"
       d="M 0,0.5 V 0 H 0.5 1 1.5 2 2.5 3 3.5 4 4.5 5 5.5 6 6.5 7 7.5 8 8.5 9 9.5 10 10.5 11 11.5 12 12.5 13 13.5 14 14.5 15 15.5 16 16.5 17 17.5 18 18.5 19 19.5 20 20.5 21 21.5 22 22.5 23 23.5 24 24.5 25 25.5 26 V 0.5 Q 26,1 25.5,1 25,1 24.5,1 24,1 23.5,1 23,1 22.5,1 22,1 22,1.5 22,2 21.5,2 21,2 20.5,2 20,2 20,2.5 20,3 19.5,3 19,3 18.5,3 18,3 18,3.5 18,4 17.5,4 17,4 17,4.5 17,5 16.5,5 16,5 16,5.5 16,6 15.5,6 15,6 14.5,6 14,6 14,6.5 14,7 13.5,7 13,7 13,7.5 13,8 12.5,8 12,8 12,8.5 12,9 11.5,9 11,9 11,9.5 11,10 10.5,10 10,10 10,10.5 10,11 10,11.5 10,12 9.5,12 9,12 9,12.5 9,13 8.5,13 8,13 8,13.5 8,14 8,14.5 8,15 7.5,15 7,15 7,15.5 7,16 7,16.5 7,17 7,17.5 7,18 6.5,18 6,18 6,18.5 6,19 6,19.5 6,20 5.5,20 5,20 4.5,20 4,20 3.5,20 3,20 2.5,20 2,20 1.5,20 1,20 0.5,20 H 0 V 19.5 19 18.5 18 17.5 17 16.5 16 15.5 15 14.5 14 13.5 13 12.5 12 11.5 11 10.5 10 9.5 9 8.5 8 7.5 7 6.5 6 5.5 5 4.5 4 3.5 3 2.5 2 1.5 1 0.5"
       style="fill:#000000;fill-opacity:0" />
    <path
       id="path385"
       d="M 26,0.5 V 0 h 0.5 0.5 0.5 0.5 0.5 0.5 0.5 0.5 0.5 0.5 0.5 0.5 0.5 0.5 0.5 0.5 0.5 0.5 0.5 0.5 0.5 0.5 0.5 0.5 0.5 0.5 0.5 0.5 0.5 0.5 v 0.5 q 0,0.5 0.5,0.5 0.5,0 1,0 0.5,0 1,0 0.5,0 1,0 Q 45,1 45,1.5 45,2 45.5,2 46,2 46.5,2 47,2 47,2.5 47,3 47.5,3 48,3 48.5,3 49,3 49,3.5 49,4 49.5,4 50,4 50,4.5 50,5 50.5,5 51,5 51.5,5 52,5 52,5.5 52,6 52.5,6 53,6 53,6.5 53,7 53.5,7 54,7 54,7.5 54,8 54.5,8 55,8 55,8.5 q 0,0.5 0,1 0,0.5 0.5,0.5 0.5,0 0.5,0.5 0,0.5 0.5,0.5 0.5,0 0.5,0.5 0,0.5 0.5,0.5 0.5,0 0.5,0.5 0,0.5 0,1 0,0.5 0.5,0.5 0.5,0 0.5,0.5 0,0.5 0.5,0.5 0.5,0 0.5,0.5 0,0.5 0,1 0,0.5 0.5,0.5 0.5,0 0.5,0.5 0,0.5 0,1 0,0.5 0,1 0,0.5 0.5,0.5 H 62 v 0.5 0.5 0.5 0.5 0.5 0.5 0.5 0.5 0.5 0.5 0.5 0.5 0.5 0.5 0.5 0.5 0.5 0.5 0.5 0.5 0.5 0.5 0.5 0.5 0.5 0.5 0.5 0.5 0.5 0.5 0.5 0.5 0.5 0.5 h -0.5 q -0.5,0 -0.5,0.5 0,0.5 0,1 0,0.5 0,1 0,0.5 -0.5,0.5 -0.5,0 -0.5,0.5 0,0.5 0,1 0,0.5 -0.5,0.5 -0.5,0 -0.5,0.5 0,0.5 0,1 Q 59,44 58.5,44 58,44 58,44.5 58,45 57.5,45 57,45 57,45.5 57,46 56.5,46 56,46 56,46.5 56,47 56,47.5 56,48 55.5,48 55,48 55,48.5 55,49 54.5,49 54,49 54,49.5 54,50 53.5,50 53,50 53,50.5 53,51 52.5,51 52,51 51.5,51 51,51 51,51.5 51,52 50.5,52 50,52 50,52.5 50,53 49.5,53 49,53 48.5,53 48,53 48,53.5 48,54 47.5,54 47,54 47,54.5 47,55 46.5,55 46,55 45.5,55 45,55 45,55.5 45,56 44.5,56 44,56 43.5,56 43,56 42.5,56 42,56 42,56.5 V 57 H 41.5 41 40.5 40 39.5 39 38.5 38 37.5 37 36.5 36 35.5 35 34.5 34 33.5 33 32.5 32 31.5 31 30.5 30 29.5 29 28.5 28 27.5 27 26.5 26 25.5 25 V 56.5 Q 25,56 24.5,56 24,56 23.5,56 23,56 22.5,56 22,56 22,55.5 22,55 21.5,55 21,55 20.5,55 20,55 20,54.5 20,54 19.5,54 19,54 18.5,54 18,54 18,53.5 18,53 17.5,53 17,53 17,52.5 17,52 16.5,52 16,52 16,51.5 16,51 15.5,51 15,51 14.5,51 14,51 14,50.5 14,50 13.5,50 13,50 13,49.5 13,49 12.5,49 12,49 12,48.5 12,48 11.5,48 11,48 11,47.5 11,47 11,46.5 11,46 10.5,46 10,46 10,45.5 10,45 9.5,45 9,45 9,44.5 9,44 8.5,44 8,44 8,43.5 8,43 8,42.5 8,42 7.5,42 7,42 7,41.5 7,41 7,40.5 7,40 7,39.5 7,39 7.5,39 q 0.5,0 1,0 0.5,0 1,0 0.5,0 1,0 0.5,0 1,0 0.5,0 1,0 0.5,0 0.5,0.5 0,0.5 0,1 0,0.5 0.5,0.5 0.5,0 0.5,0.5 0,0.5 0,1 0,0.5 0.5,0.5 0.5,0 0.5,0.5 0,0.5 0.5,0.5 0.5,0 0.5,0.5 0,0.5 0.5,0.5 0.5,0 0.5,0.5 0,0.5 0.5,0.5 0.5,0 0.5,0.5 0,0.5 0.5,0.5 0.5,0 0.5,0.5 0,0.5 0.5,0.5 0.5,0 1,0 0.5,0 0.5,0.5 0,0.5 0.5,0.5 0.5,0 1,0 0.5,0 0.5,0.5 0,0.5 0.5,0.5 0.5,0 1,0 0.5,0 0.5,0.5 0,0.5 0.5,0.5 0.5,0 1,0 0.5,0 1,0 0.5,0 0.5,0.5 0,0.5 0.5,0.5 0.5,0 1,0 0.5,0 1,0 0.5,0 1,0 0.5,0 1,0 0.5,0 1,0 0.5,0 1,0 0.5,0 1,0 0.5,0 1,0 0.5,0 1,0 0.5,0 1,0 0.5,0 0.5,-0.5 0,-0.5 0.5,-0.5 0.5,0 1,0 0.5,0 1,0 0.5,0 0.5,-0.5 0,-0.5 0.5,-0.5 0.5,0 1,0 0.5,0 0.5,-0.5 0,-0.5 0.5,-0.5 0.5,0 1,0 0.5,0 0.5,-0.5 0,-0.5 0.5,-0.5 0.5,0 1,0 Q 48,48 48,47.5 48,47 48.5,47 49,47 49,46.5 49,46 49.5,46 50,46 50,45.5 50,45 50.5,45 51,45 51,44.5 51,44 51.5,44 52,44 52,43.5 52,43 52.5,43 53,43 53,42.5 53,42 53,41.5 53,41 53.5,41 54,41 54,40.5 54,40 54,39.5 54,39 54.5,39 55,39 55,38.5 55,38 55,37.5 55,37 55.5,37 56,37 56,36.5 q 0,-0.5 0,-1 0,-0.5 0,-1 0,-0.5 0.5,-0.5 0.5,0 0.5,-0.5 0,-0.5 0,-1 0,-0.5 0,-1 0,-0.5 0,-1 0,-0.5 0,-1 0,-0.5 0,-1 0,-0.5 0,-1 0,-0.5 0,-1 0,-0.5 0,-1 0,-0.5 0,-1 0,-0.5 0,-1 Q 57,23 56.5,23 56,23 56,22.5 56,22 56,21.5 56,21 56,20.5 56,20 55.5,20 55,20 55,19.5 55,19 55,18.5 55,18 54.5,18 54,18 54,17.5 54,17 54,16.5 54,16 53.5,16 53,16 53,15.5 53,15 53,14.5 53,14 52.5,14 52,14 52,13.5 52,13 51.5,13 51,13 51,12.5 51,12 50.5,12 50,12 50,11.5 50,11 49.5,11 49,11 49,10.5 49,10 48.5,10 48,10 48,9.5 48,9 47.5,9 47,9 46.5,9 46,9 46,8.5 46,8 45.5,8 45,8 44.5,8 44,8 44,7.5 44,7 43.5,7 43,7 42.5,7 42,7 42,6.5 42,6 41.5,6 41,6 40.5,6 40,6 39.5,6 39,6 39,5.5 39,5 38.5,5 38,5 37.5,5 37,5 36.5,5 36,5 35.5,5 35,5 34.5,5 34,5 33.5,5 33,5 32.5,5 32,5 31.5,5 31,5 30.5,5 30,5 29.5,5 29,5 28.5,5 28,5 28,5.5 28,6 27.5,6 27,6 26.5,6 26,6 25.5,6 25,6 25,6.5 25,7 24.5,7 24,7 23.5,7 23,7 23,7.5 23,8 22.5,8 22,8 21.5,8 21,8 21,8.5 21,9 20.5,9 20,9 20,9.5 20,10 19.5,10 19,10 18.5,10 18,10 18,10.5 18,11 17.5,11 17,11 17,11.5 17,12 16.5,12 16,12 16,12.5 16,13 15.5,13 15,13 15,13.5 15,14 15,14.5 15,15 14.5,15 14,15 14,15.5 14,16 13.5,16 13,16 13,16.5 q 0,0.5 0,1 0,0.5 0,1 0,0.5 -0.5,0.5 -0.5,0 -0.5,0.5 0,0.5 0.5,0.5 0.5,0 1,0 0.5,0 1,0 0.5,0 1,0 0.5,0 1,0 0.5,0 0.5,0.5 0,0.5 -0.5,0.5 -0.5,0 -0.5,0.5 0,0.5 0,1 0,0.5 -0.5,0.5 -0.5,0 -0.5,0.5 0,0.5 0,1 0,0.5 -0.5,0.5 -0.5,0 -0.5,0.5 0,0.5 0,1 Q 14,27 13.5,27 13,27 13,27.5 13,28 12.5,28 12,28 12,28.5 q 0,0.5 0,1 0,0.5 -0.5,0.5 -0.5,0 -0.5,0.5 0,0.5 0,1 0,0.5 -0.5,0.5 -0.5,0 -0.5,0.5 0,0.5 0,1 Q 10,34 9.5,34 9,34 9,34.5 9,35 8.5,35 8,35 8,34.5 8,34 7.5,34 7,34 7,33.5 7,33 7,32.5 7,32 6.5,32 6,32 6,31.5 6,31 6,30.5 6,30 5.5,30 5,30 5,29.5 5,29 5,28.5 5,28 4.5,28 4,28 4,27.5 4,27 3.5,27 3,27 3,26.5 3,26 3,25.5 3,25 2.5,25 2,25 2,24.5 2,24 2,23.5 2,23 1.5,23 1,23 1,22.5 1,22 1,21.5 1,21 0.5,21 H 0 V 20.5 20 h 0.5 q 0.5,0 1,0 0.5,0 1,0 0.5,0 1,0 0.5,0 1,0 0.5,0 1,0 Q 6,20 6,19.5 6,19 6,18.5 6,18 6.5,18 7,18 7,17.5 7,17 7,16.5 7,16 7,15.5 7,15 7.5,15 8,15 8,14.5 8,14 8,13.5 8,13 8.5,13 9,13 9,12.5 9,12 9.5,12 10,12 10,11.5 10,11 10,10.5 10,10 10.5,10 11,10 11,9.5 11,9 11.5,9 12,9 12,8.5 12,8 12.5,8 13,8 13,7.5 13,7 13.5,7 14,7 14,6.5 14,6 14.5,6 15,6 15.5,6 16,6 16,5.5 16,5 16.5,5 17,5 17,4.5 17,4 17.5,4 18,4 18,3.5 18,3 18.5,3 19,3 19.5,3 20,3 20,2.5 20,2 20.5,2 21,2 21.5,2 22,2 22,1.5 22,1 22.5,1 q 0.5,0 1,0 0.5,0 1,0 0.5,0 1,0 Q 26,1 26,0.5"
       style="fill:#000000;fill-opacity:1" />
    <path
       id="path387"
       d="M 41,0.5 V 0 H 41.5 42 42.5 43 43.5 44 44.5 45 45.5 46 46.5 47 47.5 48 48.5 49 49.5 50 50.5 51 51.5 52 52.5 53 53.5 54 54.5 55 55.5 56 56.5 57 57.5 58 58.5 59 59.5 60 60.5 61 61.5 62 V 0.5 1 1.5 2 2.5 3 3.5 4 4.5 5 5.5 6 6.5 7 7.5 8 8.5 9 9.5 10 10.5 11 11.5 12 12.5 13 13.5 14 14.5 15 15.5 16 16.5 17 17.5 18 18.5 19 19.5 20 H 61.5 Q 61,20 61,19.5 61,19 61,18.5 61,18 61,17.5 61,17 60.5,17 60,17 60,16.5 60,16 60,15.5 60,15 59.5,15 59,15 59,14.5 59,14 58.5,14 58,14 58,13.5 58,13 58,12.5 58,12 57.5,12 57,12 57,11.5 57,11 56.5,11 56,11 56,10.5 56,10 55.5,10 55,10 55,9.5 55,9 55,8.5 55,8 54.5,8 54,8 54,7.5 54,7 53.5,7 53,7 53,6.5 53,6 52.5,6 52,6 52,5.5 52,5 51.5,5 51,5 50.5,5 50,5 50,4.5 50,4 49.5,4 49,4 49,3.5 49,3 48.5,3 48,3 47.5,3 47,3 47,2.5 47,2 46.5,2 46,2 45.5,2 45,2 45,1.5 45,1 44.5,1 44,1 43.5,1 43,1 42.5,1 42,1 41.5,1 41,1 41,0.5"
       style="fill:#000000;fill-opacity:0" />
    <path
       id="path389"
       d="M 28,5.5 Q 28,5 28.5,5 q 0.5,0 1,0 0.5,0 1,0 0.5,0 1,0 0.5,0 1,0 0.5,0 1,0 0.5,0 1,0 0.5,0 1,0 0.5,0 1,0 0.5,0 1,0 0.5,0 1,0 Q 39,5 39,5.5 39,6 39.5,6 40,6 40.5,6 41,6 41.5,6 42,6 42,6.5 42,7 42.5,7 43,7 43.5,7 44,7 44,7.5 44,8 44.5,8 45,8 45.5,8 46,8 46,8.5 46,9 46.5,9 q 0.5,0 1,0 0.5,0 0.5,0.5 0,0.5 0.5,0.5 0.5,0 0.5,0.5 0,0.5 0.5,0.5 0.5,0 0.5,0.5 0,0.5 0.5,0.5 0.5,0 0.5,0.5 0,0.5 0.5,0.5 0.5,0 0.5,0.5 0,0.5 0.5,0.5 0.5,0 0.5,0.5 0,0.5 0,1 0,0.5 0.5,0.5 0.5,0 0.5,0.5 0,0.5 0,1 0,0.5 0.5,0.5 0.5,0 0.5,0.5 0,0.5 0,1 0,0.5 0.5,0.5 0.5,0 0.5,0.5 0,0.5 0,1 0,0.5 0,1 0,0.5 0.5,0.5 0.5,0 0.5,0.5 0,0.5 0,1 0,0.5 0,1 0,0.5 0,1 0,0.5 0,1 0,0.5 0,1 0,0.5 0,1 0,0.5 0,1 0,0.5 0,1 0,0.5 0,1 0,0.5 0,1 0,0.5 -0.5,0.5 -0.5,0 -0.5,0.5 0,0.5 0,1 0,0.5 0,1 0,0.5 -0.5,0.5 -0.5,0 -0.5,0.5 0,0.5 0,1 0,0.5 -0.5,0.5 -0.5,0 -0.5,0.5 0,0.5 0,1 0,0.5 -0.5,0.5 -0.5,0 -0.5,0.5 0,0.5 0,1 Q 53,43 52.5,43 52,43 52,43.5 52,44 51.5,44 51,44 51,44.5 51,45 50.5,45 50,45 50,45.5 50,46 49.5,46 49,46 49,46.5 49,47 48.5,47 48,47 48,47.5 48,48 47.5,48 47,48 46.5,48 46,48 46,48.5 46,49 45.5,49 45,49 44.5,49 44,49 44,49.5 44,50 43.5,50 43,50 42.5,50 42,50 42,50.5 42,51 41.5,51 q -0.5,0 -1,0 -0.5,0 -1,0 -0.5,0 -0.5,0.5 0,0.5 -0.5,0.5 -0.5,0 -1,0 -0.5,0 -1,0 -0.5,0 -1,0 -0.5,0 -1,0 -0.5,0 -1,0 -0.5,0 -1,0 -0.5,0 -1,0 -0.5,0 -1,0 -0.5,0 -1,0 -0.5,0 -1,0 Q 28,52 28,51.5 28,51 27.5,51 27,51 26.5,51 26,51 25.5,51 25,51 25,50.5 25,50 24.5,50 24,50 23.5,50 23,50 23,49.5 23,49 22.5,49 22,49 21.5,49 21,49 21,48.5 21,48 20.5,48 20,48 19.5,48 19,48 19,47.5 19,47 18.5,47 18,47 18,46.5 18,46 17.5,46 17,46 17,45.5 17,45 16.5,45 16,45 16,44.5 16,44 15.5,44 15,44 15,43.5 15,43 14.5,43 14,43 14,42.5 14,42 14,41.5 14,41 13.5,41 13,41 13,40.5 13,40 13,39.5 13,39 12.5,39 q -0.5,0 -1,0 -0.5,0 -1,0 -0.5,0 -1,0 Q 9,39 8.5,39 8,39 7.5,39 7,39 7,39.5 7,40 7,40.5 7,41 7,41.5 7,42 7.5,42 8,42 8,42.5 8,43 8,43.5 8,44 8.5,44 9,44 9,44.5 9,45 9.5,45 q 0.5,0 0.5,0.5 0,0.5 0.5,0.5 0.5,0 0.5,0.5 0,0.5 0,1 0,0.5 0.5,0.5 0.5,0 0.5,0.5 0,0.5 0.5,0.5 0.5,0 0.5,0.5 0,0.5 0.5,0.5 0.5,0 0.5,0.5 0,0.5 0.5,0.5 0.5,0 1,0 0.5,0 0.5,0.5 0,0.5 0.5,0.5 0.5,0 0.5,0.5 0,0.5 0.5,0.5 0.5,0 0.5,0.5 0,0.5 0.5,0.5 0.5,0 1,0 0.5,0 0.5,0.5 0,0.5 0.5,0.5 0.5,0 1,0 0.5,0 0.5,0.5 0,0.5 0.5,0.5 0.5,0 1,0 0.5,0 1,0 0.5,0 0.5,0.5 V 57 H 24.5 24 23.5 23 22.5 22 21.5 21 20.5 20 19.5 19 18.5 18 17.5 17 16.5 16 15.5 15 14.5 14 13.5 13 12.5 12 11.5 11 10.5 10 9.5 9 8.5 8 7.5 7 6.5 6 5.5 5 4.5 4 3.5 3 2.5 2 1.5 1 0.5 0 V 56.5 56 55.5 55 54.5 54 53.5 53 52.5 52 51.5 51 50.5 50 49.5 49 48.5 48 47.5 47 46.5 46 45.5 45 44.5 44 43.5 43 42.5 42 41.5 41 40.5 40 39.5 39 38.5 38 37.5 37 36.5 36 35.5 35 34.5 34 33.5 33 32.5 32 31.5 31 30.5 30 29.5 29 28.5 28 27.5 27 26.5 26 25.5 25 24.5 24 23.5 23 22.5 22 21.5 21 H 0.5 Q 1,21 1,21.5 1,22 1,22.5 1,23 1.5,23 2,23 2,23.5 2,24 2,24.5 2,25 2.5,25 3,25 3,25.5 3,26 3,26.5 3,27 3.5,27 4,27 4,27.5 4,28 4.5,28 5,28 5,28.5 5,29 5,29.5 5,30 5.5,30 6,30 6,30.5 6,31 6,31.5 6,32 6.5,32 7,32 7,32.5 7,33 7,33.5 7,34 7.5,34 8,34 8,34.5 8,35 8.5,35 9,35 9,34.5 9,34 9.5,34 10,34 10,33.5 10,33 10,32.5 10,32 10.5,32 11,32 11,31.5 11,31 11,30.5 11,30 11.5,30 12,30 12,29.5 12,29 12,28.5 12,28 12.5,28 13,28 13,27.5 13,27 13.5,27 14,27 14,26.5 14,26 14,25.5 14,25 14.5,25 15,25 15,24.5 15,24 15,23.5 15,23 15.5,23 16,23 16,22.5 16,22 16,21.5 16,21 16.5,21 17,21 17,20.5 17,20 16.5,20 q -0.5,0 -1,0 -0.5,0 -1,0 -0.5,0 -1,0 -0.5,0 -1,0 Q 12,20 12,19.5 12,19 12.5,19 13,19 13,18.5 13,18 13,17.5 13,17 13,16.5 13,16 13.5,16 14,16 14,15.5 14,15 14.5,15 15,15 15,14.5 15,14 15,13.5 15,13 15.5,13 16,13 16,12.5 16,12 16.5,12 17,12 17,11.5 17,11 17.5,11 18,11 18,10.5 18,10 18.5,10 19,10 19.5,10 20,10 20,9.5 20,9 20.5,9 21,9 21,8.5 21,8 21.5,8 22,8 22.5,8 23,8 23,7.5 23,7 23.5,7 24,7 24.5,7 25,7 25,6.5 25,6 25.5,6 26,6 26.5,6 27,6 27.5,6 28,6 28,5.5 M 38.5,45 Q 39,45 39,44.5 39,44 39.5,44 q 0.5,0 1,0 0.5,0 0.5,-0.5 0,-0.5 0.5,-0.5 0.5,0 1,0 Q 43,43 43,42.5 43,42 43.5,42 44,42 44,41.5 44,41 44.5,41 45,41 45,40.5 45,40 45.5,40 46,40 46,39.5 46,39 46,38.5 46,38 46.5,38 47,38 47,37.5 47,37 47,36.5 47,36 47.5,36 48,36 48,35.5 q 0,-0.5 0,-1 0,-0.5 0,-1 0,-0.5 0,-1 0,-0.5 0,-1 0,-0.5 0,-1 0,-0.5 0,-1 Q 48,29 47.5,29 47,29 47,28.5 47,28 47,27.5 47,27 46.5,27 46,27 46,26.5 46,26 45.5,26 45,26 45,25.5 45,25 44.5,25 44,25 44,24.5 44,24 43.5,24 43,24 43,23.5 43,23 42.5,23 42,23 41.5,23 41,23 41,22.5 41,22 40.5,22 q -0.5,0 -1,0 -0.5,0 -1,0 -0.5,0 -1,0 -0.5,0 -1,0 -0.5,0 -1,0 -0.5,0 -1,0 -0.5,0 -1,0 -0.5,0 -1,0 -0.5,0 -1,0 -0.5,0 -1,0 -0.5,0 -1,0 Q 29,22 29,21.5 29,21 29,20.5 29,20 28.5,20 28,20 28,19.5 q 0,-0.5 0,-1 0,-0.5 0,-1 0,-0.5 0.5,-0.5 0.5,0 1,0 0.5,0 1,0 0.5,0 1,0 0.5,0 1,0 0.5,0 1,0 0.5,0 1,0 0.5,0 1,0 0.5,0 1,0 0.5,0 1,0 0.5,0 1,0 0.5,0 1,0 0.5,0 0.5,0.5 0,0.5 0.5,0.5 0.5,0 1,0 0.5,0 1,0 Q 43,18 43,17.5 43,17 43.5,17 44,17 44,16.5 44,16 44,15.5 44,15 44,14.5 44,14 43.5,14 43,14 42.5,14 42,14 42,13.5 42,13 41.5,13 q -0.5,0 -1,0 -0.5,0 -1,0 -0.5,0 -1,0 -0.5,0 -1,0 -0.5,0 -1,0 -0.5,0 -1,0 -0.5,0 -1,0 -0.5,0 -1,0 -0.5,0 -1,0 -0.5,0 -1,0 -0.5,0 -1,0 -0.5,0 -1,0 -0.5,0 -1,0 -0.5,0 -1,0 -0.5,0 -1,0 -0.5,0 -1,0 -0.5,0 -1,0 -0.5,0 -0.5,0.5 0,0.5 0,1 0,0.5 0,1 0,0.5 0,1 0,0.5 0,1 0,0.5 0,1 0,0.5 0,1 0,0.5 0,1 0,0.5 0,1 0,0.5 0,1 0,0.5 0,1 0,0.5 0.5,0.5 0.5,0 0.5,0.5 0,0.5 0.5,0.5 0.5,0 0.5,0.5 0,0.5 0.5,0.5 0.5,0 1,0 0.5,0 1,0 0.5,0 1,0 0.5,0 1,0 0.5,0 1,0 0.5,0 1,0 0.5,0 1,0 0.5,0 1,0 0.5,0 1,0 0.5,0 1,0 0.5,0 1,0 0.5,0 1,0 0.5,0 1,0 0.5,0 0.5,0.5 0,0.5 0.5,0.5 0.5,0 1,0 0.5,0 0.5,0.5 0,0.5 0.5,0.5 0.5,0 0.5,0.5 0,0.5 0,1 0,0.5 0.5,0.5 0.5,0 0.5,0.5 0,0.5 0,1 0,0.5 0,1 0,0.5 0,1 0,0.5 0,1 0,0.5 -0.5,0.5 -0.5,0 -0.5,0.5 0,0.5 0,1 Q 43,37 42.5,37 42,37 42,37.5 42,38 41.5,38 41,38 41,38.5 41,39 40.5,39 40,39 40,39.5 40,40 39.5,40 q -0.5,0 -1,0 -0.5,0 -1,0 -0.5,0 -0.5,0.5 0,0.5 -0.5,0.5 -0.5,0 -1,0 -0.5,0 -1,0 -0.5,0 -1,0 -0.5,0 -1,0 Q 32,41 32,40.5 32,40 31.5,40 q -0.5,0 -1,0 -0.5,0 -1,0 -0.5,0 -1,0 Q 28,40 28,39.5 28,39 27.5,39 27,39 26.5,39 26,39 26,38.5 26,38 25.5,38 q -0.5,0 -1,0 -0.5,0 -1,0 -0.5,0 -0.5,0.5 0,0.5 0,1 0,0.5 0,1 0,0.5 0,1 0,0.5 0.5,0.5 0.5,0 0.5,0.5 0,0.5 0.5,0.5 0.5,0 1,0 0.5,0 1,0 0.5,0 0.5,0.5 0,0.5 0.5,0.5 0.5,0 1,0 0.5,0 1,0 0.5,0 0.5,0.5 0,0.5 0.5,0.5 0.5,0 1,0 0.5,0 1,0 0.5,0 1,0 0.5,0 1,0 0.5,0 1,0 0.5,0 1,0 0.5,0 1,0 0.5,0 1,0"
       style="fill:#000000;fill-opacity:0" />
    <path
       id="path391"
       d="m 24,13.5 q 0,-0.5 0.5,-0.5 0.5,0 1,0 0.5,0 1,0 0.5,0 1,0 0.5,0 1,0 0.5,0 1,0 0.5,0 1,0 0.5,0 1,0 0.5,0 1,0 0.5,0 1,0 0.5,0 1,0 0.5,0 1,0 0.5,0 1,0 0.5,0 1,0 0.5,0 1,0 0.5,0 1,0 0.5,0 1,0 0.5,0 1,0 0.5,0 0.5,0.5 0,0.5 0.5,0.5 0.5,0 1,0 0.5,0 0.5,0.5 0,0.5 0,1 0,0.5 0,1 Q 44,17 43.5,17 43,17 43,17.5 43,18 42.5,18 42,18 41.5,18 41,18 40.5,18 40,18 40,17.5 40,17 39.5,17 q -0.5,0 -1,0 -0.5,0 -1,0 -0.5,0 -1,0 -0.5,0 -1,0 -0.5,0 -1,0 -0.5,0 -1,0 -0.5,0 -1,0 -0.5,0 -1,0 -0.5,0 -1,0 -0.5,0 -1,0 -0.5,0 -1,0 -0.5,0 -0.5,0.5 0,0.5 0,1 0,0.5 0,1 0,0.5 0.5,0.5 0.5,0 0.5,0.5 0,0.5 0,1 0,0.5 0.5,0.5 0.5,0 1,0 0.5,0 1,0 0.5,0 1,0 0.5,0 1,0 0.5,0 1,0 0.5,0 1,0 0.5,0 1,0 0.5,0 1,0 0.5,0 1,0 0.5,0 1,0 0.5,0 1,0 0.5,0 0.5,0.5 0,0.5 0.5,0.5 0.5,0 1,0 0.5,0 0.5,0.5 0,0.5 0.5,0.5 0.5,0 0.5,0.5 0,0.5 0.5,0.5 0.5,0 0.5,0.5 0,0.5 0.5,0.5 0.5,0 0.5,0.5 0,0.5 0.5,0.5 0.5,0 0.5,0.5 0,0.5 0,1 0,0.5 0.5,0.5 0.5,0 0.5,0.5 0,0.5 0,1 0,0.5 0,1 0,0.5 0,1 0,0.5 0,1 0,0.5 0,1 0,0.5 0,1 0,0.5 -0.5,0.5 -0.5,0 -0.5,0.5 0,0.5 0,1 0,0.5 -0.5,0.5 -0.5,0 -0.5,0.5 0,0.5 0,1 Q 46,40 45.5,40 45,40 45,40.5 45,41 44.5,41 44,41 44,41.5 44,42 43.5,42 43,42 43,42.5 43,43 42.5,43 42,43 41.5,43 41,43 41,43.5 41,44 40.5,44 40,44 39.5,44 39,44 39,44.5 39,45 38.5,45 q -0.5,0 -1,0 -0.5,0 -1,0 -0.5,0 -1,0 -0.5,0 -1,0 -0.5,0 -1,0 -0.5,0 -1,0 -0.5,0 -1,0 -0.5,0 -1,0 Q 30,45 30,44.5 30,44 29.5,44 29,44 28.5,44 28,44 27.5,44 27,44 27,43.5 27,43 26.5,43 26,43 25.5,43 25,43 24.5,43 24,43 24,42.5 24,42 23.5,42 23,42 23,41.5 q 0,-0.5 0,-1 0,-0.5 0,-1 0,-0.5 0,-1 0,-0.5 0.5,-0.5 0.5,0 1,0 0.5,0 1,0 0.5,0 0.5,0.5 0,0.5 0.5,0.5 0.5,0 1,0 0.5,0 0.5,0.5 0,0.5 0.5,0.5 0.5,0 1,0 0.5,0 1,0 0.5,0 1,0 0.5,0 0.5,0.5 0,0.5 0.5,0.5 0.5,0 1,0 0.5,0 1,0 0.5,0 1,0 0.5,0 1,0 0.5,0 0.5,-0.5 0,-0.5 0.5,-0.5 0.5,0 1,0 0.5,0 1,0 Q 40,40 40,39.5 40,39 40.5,39 41,39 41,38.5 41,38 41.5,38 42,38 42,37.5 42,37 42.5,37 43,37 43,36.5 43,36 43,35.5 43,35 43.5,35 44,35 44,34.5 q 0,-0.5 0,-1 0,-0.5 0,-1 0,-0.5 0,-1 0,-0.5 0,-1 Q 44,30 43.5,30 43,30 43,29.5 43,29 43,28.5 43,28 42.5,28 42,28 42,27.5 42,27 41.5,27 41,27 40.5,27 40,27 40,26.5 40,26 39.5,26 q -0.5,0 -1,0 -0.5,0 -1,0 -0.5,0 -1,0 -0.5,0 -1,0 -0.5,0 -1,0 -0.5,0 -1,0 -0.5,0 -1,0 -0.5,0 -1,0 -0.5,0 -1,0 -0.5,0 -1,0 -0.5,0 -1,0 -0.5,0 -1,0 -0.5,0 -1,0 Q 26,26 26,25.5 26,25 25.5,25 25,25 25,24.5 25,24 24.5,24 24,24 24,23.5 q 0,-0.5 0,-1 0,-0.5 0,-1 0,-0.5 0,-1 0,-0.5 0,-1 0,-0.5 0,-1 0,-0.5 0,-1 0,-0.5 0,-1 0,-0.5 0,-1 0,-0.5 0,-1 0,-0.5 0,-1"
       style="fill:#000000;fill-opacity:1" />
    <path
       id="path393"
       d="M 61,37.5 Q 61,37 61.5,37 H 62 V 37.5 38 38.5 39 39.5 40 40.5 41 41.5 42 42.5 43 43.5 44 44.5 45 45.5 46 46.5 47 47.5 48 48.5 49 49.5 50 50.5 51 51.5 52 52.5 53 53.5 54 54.5 55 55.5 56 56.5 57 H 61.5 61 60.5 60 59.5 59 58.5 58 57.5 57 56.5 56 55.5 55 54.5 54 53.5 53 52.5 52 51.5 51 50.5 50 49.5 49 48.5 48 47.5 47 46.5 46 45.5 45 44.5 44 43.5 43 42.5 42 v -0.5 q 0,-0.5 0.5,-0.5 0.5,0 1,0 0.5,0 1,0 0.5,0 0.5,-0.5 0,-0.5 0.5,-0.5 0.5,0 1,0 Q 47,55 47,54.5 47,54 47.5,54 48,54 48,53.5 48,53 48.5,53 49,53 49.5,53 50,53 50,52.5 50,52 50.5,52 51,52 51,51.5 51,51 51.5,51 52,51 52.5,51 53,51 53,50.5 53,50 53.5,50 54,50 54,49.5 54,49 54.5,49 55,49 55,48.5 55,48 55.5,48 56,48 56,47.5 56,47 56,46.5 56,46 56.5,46 57,46 57,45.5 57,45 57.5,45 58,45 58,44.5 58,44 58.5,44 59,44 59,43.5 59,43 59,42.5 59,42 59.5,42 60,42 60,41.5 60,41 60,40.5 60,40 60.5,40 61,40 61,39.5 q 0,-0.5 0,-1 0,-0.5 0,-1"
       style="fill:#000000;fill-opacity:0" />
  </g>
</svg>
