<?xml version="1.0" encoding="UTF-8" standalone="no"?>
<svg
   xmlns:dc="http://purl.org/dc/elements/1.1/"
   xmlns:cc="http://creativecommons.org/ns#"
   xmlns:rdf="http://www.w3.org/1999/02/22-rdf-syntax-ns#"
   xmlns:svg="http://www.w3.org/2000/svg"
   xmlns="http://www.w3.org/2000/svg"
   viewBox="0 0 14 50"
   height="50"
   width="14"
   id="svg1241"
   version="1.1">
  <metadata
     id="metadata1247">
    <rdf:RDF>
      <cc:Work
         rdf:about="">
        <dc:format>image/svg+xml</dc:format>
        <dc:type
           rdf:resource="http://purl.org/dc/dcmitype/StillImage" />
        <dc:title></dc:title>
      </cc:Work>
    </rdf:RDF>
  </metadata>
  <defs
     id="defs1245" />
  <g
     id="g1271">
    <path
       id="path1251"
       d="M 0,0.5 V 0 H 0.5 1 1.5 2 V 0.5 Q 2,1 2,1.5 2,2 2,2.5 2,3 2,3.5 2,4 1.5,4 1,4 1,4.5 q 0,0.5 0,1 0,0.5 0,1 0,0.5 0,1 0,0.5 0,1 0,0.5 0,1 0,0.5 0,1 0,0.5 0,1 0,0.5 0,1 0,0.5 0,1 0,0.5 0,1 0,0.5 0,1 0,0.5 0,1 0,0.5 0,1 0,0.5 0,1 0,0.5 0,1 0,0.5 0,1 Q 1,21 0.5,21 H 0 V 20.5 20 19.5 19 18.5 18 17.5 17 16.5 16 15.5 15 14.5 14 13.5 13 12.5 12 11.5 11 10.5 10 9.5 9 8.5 8 7.5 7 6.5 6 5.5 5 4.5 4 3.5 3 2.5 2 1.5 1 0.5"
       style="fill:#000000;fill-opacity:0" />
    <path
       id="path1253"
       d="M 2,0.5 V 0 H 2.5 3 3.5 4 4.5 5 5.5 6 6.5 7 7.5 8 8.5 9 9.5 10 v 0.5 q 0,0.5 0.5,0.5 0.5,0 1,0 0.5,0 1,0 0.5,0 1,0 H 14 V 1.5 2 2.5 3 3.5 4 4.5 5 5.5 6 6.5 7 7.5 8 8.5 9 9.5 10 h -0.5 q -0.5,0 -0.5,0.5 0,0.5 0,1 0,0.5 0,1 0,0.5 0,1 0,0.5 0,1 0,0.5 0,1 0,0.5 0,1 0,0.5 0,1 0,0.5 0,1 0,0.5 -0.5,0.5 -0.5,0 -0.5,0.5 0,0.5 0,1 0,0.5 0,1 0,0.5 0,1 0,0.5 0,1 0,0.5 0,1 0,0.5 0,1 0,0.5 0,1 0,0.5 0,1 0,0.5 0,1 0,0.5 0,1 0,0.5 0,1 0,0.5 0,1 0,0.5 0,1 0,0.5 -0.5,0.5 -0.5,0 -0.5,0.5 0,0.5 0,1 0,0.5 0,1 0,0.5 0,1 0,0.5 0,1 0,0.5 0,1 0,0.5 -0.5,0.5 -0.5,0 -0.5,0.5 0,0.5 0,1 0,0.5 0,1 0,0.5 0,1 Q 10,43 9.5,43 9,43 9,43.5 9,44 9,44.5 9,45 9,45.5 9,46 8.5,46 8,46 8,46.5 8,47 8,47.5 8,48 7.5,48 7,48 7,48.5 7,49 6.5,49 6,49 6,49.5 V 50 H 5.5 5 V 49.5 Q 5,49 4.5,49 4,49 4,48.5 4,48 3.5,48 3,48 3,47.5 3,47 3,46.5 3,46 2.5,46 2,46 2,45.5 2,45 2,44.5 2,44 2,43.5 2,43 1.5,43 1,43 1,42.5 1,42 1,41.5 1,41 1,40.5 1,40 1,39.5 1,39 0.5,39 H 0 V 38.5 38 37.5 37 36.5 36 35.5 35 34.5 34 33.5 33 32.5 32 31.5 31 30.5 30 29.5 29 28.5 28 27.5 27 26.5 26 25.5 25 24.5 24 23.5 23 22.5 22 21.5 21 H 0.5 Q 1,21 1,20.5 1,20 1,19.5 1,19 1,18.5 1,18 1,17.5 1,17 1,16.5 1,16 1,15.5 1,15 1,14.5 1,14 1,13.5 1,13 1,12.5 1,12 1,11.5 1,11 1,10.5 1,10 1,9.5 1,9 1,8.5 1,8 1,7.5 1,7 1,6.5 1,6 1,5.5 1,5 1,4.5 1,4 1.5,4 2,4 2,3.5 2,3 2,2.5 2,2 2,1.5 2,1 2,0.5 M 4.5,44 Q 5,44 5,43.5 5,43 5,42.5 5,42 5.5,42 6,42 6,42.5 6,43 6.5,43 7,43 7,42.5 7,42 7.5,42 8,42 8,41.5 8,41 8,40.5 8,40 8,39.5 8,39 8.5,39 9,39 9,38.5 9,38 9,37.5 9,37 8.5,37 8,37 7.5,37 7,37 6.5,37 6,37 5.5,37 5,37 4.5,37 4,37 3.5,37 3,37 2.5,37 2,37 2,37.5 2,38 2,38.5 2,39 2.5,39 3,39 3,39.5 3,40 3,40.5 3,41 3,41.5 3,42 3.5,42 4,42 4,42.5 4,43 4,43.5 4,44 4.5,44 m 4,-9 Q 9,35 9,34.5 9,34 9,33.5 9,33 9,32.5 9,32 9,31.5 9,31 9,30.5 9,30 9,29.5 9,29 9,28.5 9,28 9,27.5 9,27 9,26.5 9,26 9,25.5 9,25 9,24.5 9,24 9,23.5 9,23 9,22.5 9,22 9,21.5 9,21 9,20.5 9,20 9,19.5 9,19 9,18.5 9,18 9,17.5 9,17 9,16.5 9,16 8.5,16 8,16 8,16.5 q 0,0.5 0,1 0,0.5 0,1 0,0.5 0,1 0,0.5 0,1 0,0.5 0,1 0,0.5 0,1 0,0.5 0,1 0,0.5 0,1 0,0.5 0,1 0,0.5 0,1 0,0.5 0,1 0,0.5 0,1 0,0.5 0,1 0,0.5 0,1 0,0.5 0,1 0,0.5 0,1 0,0.5 0,1 0,0.5 0,1 0,0.5 0.5,0.5 m -3,0 Q 6,35 6,34.5 6,34 6,33.5 6,33 6,32.5 6,32 6,31.5 6,31 6,30.5 6,30 6,29.5 6,29 6,28.5 6,28 6,27.5 6,27 6,26.5 6,26 6,25.5 6,25 6,24.5 6,24 6,23.5 6,23 6,22.5 6,22 6,21.5 6,21 6,20.5 6,20 6,19.5 6,19 6,18.5 6,18 6,17.5 6,17 6,16.5 6,16 6,15.5 6,15 6,14.5 6,14 6,13.5 6,13 5.5,13 5,13 5,13.5 q 0,0.5 0,1 0,0.5 0,1 0,0.5 0,1 0,0.5 0,1 0,0.5 0,1 0,0.5 0,1 0,0.5 0,1 0,0.5 0,1 0,0.5 0,1 0,0.5 0,1 0,0.5 0,1 0,0.5 0,1 0,0.5 0,1 0,0.5 0,1 0,0.5 0,1 0,0.5 0,1 0,0.5 0,1 0,0.5 0,1 0,0.5 0,1 0,0.5 0,1 0,0.5 0,1 0,0.5 0.5,0.5 m -2,0 Q 4,35 4,34.5 4,34 4,33.5 4,33 4,32.5 4,32 4,31.5 4,31 4,30.5 4,30 4,29.5 4,29 4,28.5 4,28 4,27.5 4,27 4,26.5 4,26 4,25.5 4,25 4,24.5 4,24 4,23.5 4,23 4,22.5 4,22 4,21.5 4,21 4,20.5 4,20 4,19.5 4,19 4,18.5 4,18 4,17.5 4,17 4,16.5 4,16 3.5,16 3,16 3,16.5 q 0,0.5 0,1 0,0.5 0,1 0,0.5 0,1 0,0.5 0,1 0,0.5 0,1 0,0.5 0,1 0,0.5 0,1 0,0.5 0,1 0,0.5 0,1 0,0.5 0,1 0,0.5 0,1 0,0.5 0,1 0,0.5 0,1 0,0.5 0,1 0,0.5 0,1 0,0.5 0,1 0,0.5 0,1 0,0.5 0,1 0,0.5 0.5,0.5 m 7,-23 Q 11,12 11,11.5 11,11 11,10.5 11,10 11,9.5 11,9 11,8.5 11,8 11,7.5 11,7 11,6.5 11,6 11,5.5 11,5 11,4.5 11,4 10.5,4 10,4 9.5,4 9,4 8.5,4 8,4 8,3.5 8,3 7.5,3 7,3 6.5,3 6,3 5.5,3 5,3 4.5,3 4,3 4,3.5 q 0,0.5 0,1 0,0.5 0,1 0,0.5 0,1 0,0.5 0,1 0,0.5 0,1 0,0.5 0,1 0,0.5 0,1 0,0.5 0.5,0.5 0.5,0 1,0 0.5,0 1,0 0.5,0 1,0 0.5,0 1,0 0.5,0 1,0 0.5,0 0.5,0.5 0,0.5 0.5,0.5"
       style="fill:#000000;fill-opacity:1" />
    <path
       id="path1255"
       d="M 10,0.5 V 0 H 10.5 11 11.5 12 12.5 13 13.5 14 V 0.5 1 H 13.5 Q 13,1 12.5,1 12,1 11.5,1 11,1 10.5,1 10,1 10,0.5"
       style="fill:#000000;fill-opacity:0" />
    <path
       id="path1257"
       d="M 4,3.5 Q 4,3 4.5,3 5,3 5.5,3 6,3 6.5,3 7,3 7.5,3 8,3 8,3.5 8,4 8.5,4 q 0.5,0 1,0 0.5,0 1,0 0.5,0 0.5,0.5 0,0.5 0,1 0,0.5 0,1 0,0.5 0,1 0,0.5 0,1 0,0.5 0,1 0,0.5 0,1 0,0.5 0,1 Q 11,12 10.5,12 10,12 10,11.5 10,11 9.5,11 9,11 8.5,11 8,11 7.5,11 7,11 6.5,11 6,11 5.5,11 5,11 4.5,11 4,11 4,10.5 4,10 4,9.5 4,9 4,8.5 4,8 4,7.5 4,7 4,6.5 4,6 4,5.5 4,5 4,4.5 4,4 4,3.5"
       style="fill:#000000;fill-opacity:0" />
    <path
       id="path1259"
       d="M 13,10.5 Q 13,10 13.5,10 H 14 V 10.5 11 11.5 12 12.5 13 13.5 14 14.5 15 15.5 16 16.5 17 17.5 18 18.5 19 19.5 20 20.5 21 21.5 22 22.5 23 23.5 24 24.5 25 25.5 26 26.5 27 27.5 28 28.5 29 29.5 30 30.5 31 31.5 32 32.5 33 33.5 34 34.5 35 35.5 36 36.5 37 37.5 38 38.5 39 39.5 40 40.5 41 41.5 42 42.5 43 43.5 44 44.5 45 45.5 46 46.5 47 47.5 48 48.5 49 49.5 50 H 13.5 13 12.5 12 11.5 11 10.5 10 9.5 9 8.5 8 7.5 7 6.5 6 V 49.5 Q 6,49 6.5,49 7,49 7,48.5 7,48 7.5,48 8,48 8,47.5 8,47 8,46.5 8,46 8.5,46 9,46 9,45.5 9,45 9,44.5 9,44 9,43.5 9,43 9.5,43 10,43 10,42.5 q 0,-0.5 0,-1 0,-0.5 0,-1 0,-0.5 0,-1 0,-0.5 0.5,-0.5 0.5,0 0.5,-0.5 0,-0.5 0,-1 0,-0.5 0,-1 0,-0.5 0,-1 0,-0.5 0,-1 0,-0.5 0,-1 0,-0.5 0.5,-0.5 0.5,0 0.5,-0.5 0,-0.5 0,-1 0,-0.5 0,-1 0,-0.5 0,-1 0,-0.5 0,-1 0,-0.5 0,-1 0,-0.5 0,-1 0,-0.5 0,-1 0,-0.5 0,-1 0,-0.5 0,-1 0,-0.5 0,-1 0,-0.5 0,-1 0,-0.5 0,-1 0,-0.5 0,-1 0,-0.5 0.5,-0.5 0.5,0 0.5,-0.5 0,-0.5 0,-1 0,-0.5 0,-1 0,-0.5 0,-1 0,-0.5 0,-1 0,-0.5 0,-1 0,-0.5 0,-1 0,-0.5 0,-1 0,-0.5 0,-1"
       style="fill:#000000;fill-opacity:0" />
    <path
       id="path1261"
       d="M 5,13.5 Q 5,13 5.5,13 6,13 6,13.5 q 0,0.5 0,1 0,0.5 0,1 0,0.5 0,1 0,0.5 0,1 0,0.5 0,1 0,0.5 0,1 0,0.5 0,1 0,0.5 0,1 0,0.5 0,1 0,0.5 0,1 0,0.5 0,1 0,0.5 0,1 0,0.5 0,1 0,0.5 0,1 0,0.5 0,1 0,0.5 0,1 0,0.5 0,1 0,0.5 0,1 0,0.5 0,1 0,0.5 0,1 0,0.5 0,1 Q 6,35 5.5,35 5,35 5,34.5 5,34 5,33.5 5,33 5,32.5 5,32 5,31.5 5,31 5,30.5 5,30 5,29.5 5,29 5,28.5 5,28 5,27.5 5,27 5,26.5 5,26 5,25.5 5,25 5,24.5 5,24 5,23.5 5,23 5,22.5 5,22 5,21.5 5,21 5,20.5 5,20 5,19.5 5,19 5,18.5 5,18 5,17.5 5,17 5,16.5 5,16 5,15.5 5,15 5,14.5 5,14 5,13.5"
       style="fill:#000000;fill-opacity:0" />
    <path
       id="path1263"
       d="M 3,16.5 Q 3,16 3.5,16 4,16 4,16.5 q 0,0.5 0,1 0,0.5 0,1 0,0.5 0,1 0,0.5 0,1 0,0.5 0,1 0,0.5 0,1 0,0.5 0,1 0,0.5 0,1 0,0.5 0,1 0,0.5 0,1 0,0.5 0,1 0,0.5 0,1 0,0.5 0,1 0,0.5 0,1 0,0.5 0,1 0,0.5 0,1 0,0.5 0,1 0,0.5 0,1 Q 4,35 3.5,35 3,35 3,34.5 3,34 3,33.5 3,33 3,32.5 3,32 3,31.5 3,31 3,30.5 3,30 3,29.5 3,29 3,28.5 3,28 3,27.5 3,27 3,26.5 3,26 3,25.5 3,25 3,24.5 3,24 3,23.5 3,23 3,22.5 3,22 3,21.5 3,21 3,20.5 3,20 3,19.5 3,19 3,18.5 3,18 3,17.5 3,17 3,16.5"
       style="fill:#000000;fill-opacity:0" />
    <path
       id="path1265"
       d="M 8,16.5 Q 8,16 8.5,16 9,16 9,16.5 q 0,0.5 0,1 0,0.5 0,1 0,0.5 0,1 0,0.5 0,1 0,0.5 0,1 0,0.5 0,1 0,0.5 0,1 0,0.5 0,1 0,0.5 0,1 0,0.5 0,1 0,0.5 0,1 0,0.5 0,1 0,0.5 0,1 0,0.5 0,1 0,0.5 0,1 0,0.5 0,1 0,0.5 0,1 0,0.5 0,1 Q 9,35 8.5,35 8,35 8,34.5 8,34 8,33.5 8,33 8,32.5 8,32 8,31.5 8,31 8,30.5 8,30 8,29.5 8,29 8,28.5 8,28 8,27.5 8,27 8,26.5 8,26 8,25.5 8,25 8,24.5 8,24 8,23.5 8,23 8,22.5 8,22 8,21.5 8,21 8,20.5 8,20 8,19.5 8,19 8,18.5 8,18 8,17.5 8,17 8,16.5"
       style="fill:#000000;fill-opacity:0" />
    <path
       id="path1267"
       d="M 2,37.5 Q 2,37 2.5,37 q 0.5,0 1,0 0.5,0 1,0 0.5,0 1,0 0.5,0 1,0 0.5,0 1,0 0.5,0 1,0 Q 9,37 9,37.5 9,38 9,38.5 9,39 8.5,39 8,39 8,39.5 8,40 8,40.5 8,41 8,41.5 8,42 7.5,42 7,42 7,42.5 7,43 6.5,43 6,43 6,42.5 6,42 5.5,42 5,42 5,42.5 5,43 5,43.5 5,44 4.5,44 4,44 4,43.5 4,43 4,42.5 4,42 3.5,42 3,42 3,41.5 3,41 3,40.5 3,40 3,39.5 3,39 2.5,39 2,39 2,38.5 2,38 2,37.5"
       style="fill:#000000;fill-opacity:0" />
    <path
       id="path1269"
       d="M 0,39.5 V 39 h 0.5 q 0.5,0 0.5,0.5 0,0.5 0,1 0,0.5 0,1 0,0.5 0,1 Q 1,43 1.5,43 2,43 2,43.5 2,44 2,44.5 2,45 2,45.5 2,46 2.5,46 3,46 3,46.5 3,47 3,47.5 3,48 3.5,48 4,48 4,48.5 4,49 4.5,49 5,49 5,49.5 V 50 H 4.5 4 3.5 3 2.5 2 1.5 1 0.5 0 V 49.5 49 48.5 48 47.5 47 46.5 46 45.5 45 44.5 44 43.5 43 42.5 42 41.5 41 40.5 40 39.5"
       style="fill:#000000;fill-opacity:0" />
  </g>
</svg>
