<?xml version="1.0" encoding="UTF-8" standalone="no"?>
<svg
   xmlns:dc="http://purl.org/dc/elements/1.1/"
   xmlns:cc="http://creativecommons.org/ns#"
   xmlns:rdf="http://www.w3.org/1999/02/22-rdf-syntax-ns#"
   xmlns:svg="http://www.w3.org/2000/svg"
   xmlns="http://www.w3.org/2000/svg"
   viewBox="0 0 53 71"
   height="71"
   width="53"
   id="svg6855"
   version="1.1">
  <metadata
     id="metadata6861">
    <rdf:RDF>
      <cc:Work
         rdf:about="">
        <dc:format>image/svg+xml</dc:format>
        <dc:type
           rdf:resource="http://purl.org/dc/dcmitype/StillImage" />
        <dc:title></dc:title>
      </cc:Work>
    </rdf:RDF>
  </metadata>
  <defs
     id="defs6859" />
  <g
     id="g6873">
    <path
       id="path6865"
       d="M 0,0.5 V 0 H 0.5 1 V 0.5 Q 1,1 1.5,1 2,1 2.5,1 3,1 3,1.5 3,2 3.5,2 4,2 4,2.5 4,3 4.5,3 5,3 5.5,3 6,3 6,3.5 6,4 6.5,4 7,4 7,4.5 7,5 7.5,5 8,5 8.5,5 9,5 9,5.5 9,6 9.5,6 10,6 10,6.5 10,7 10.5,7 11,7 11.5,7 12,7 12,7.5 12,8 12.5,8 13,8 13,8.5 13,9 13.5,9 q 0.5,0 1,0 0.5,0 0.5,0.5 0,0.5 0.5,0.5 0.5,0 0.5,0.5 0,0.5 0.5,0.5 0.5,0 1,0 0.5,0 0.5,0.5 0,0.5 0.5,0.5 0.5,0 0.5,0.5 0,0.5 0.5,0.5 0.5,0 1,0 0.5,0 0.5,0.5 0,0.5 0.5,0.5 0.5,0 0.5,0.5 0,0.5 0.5,0.5 0.5,0 1,0 0.5,0 0.5,0.5 0,0.5 0.5,0.5 0.5,0 0.5,0.5 0,0.5 0.5,0.5 0.5,0 0.5,0.5 0,0.5 0.5,0.5 0.5,0 1,0 0.5,0 0.5,0.5 0,0.5 0.5,0.5 0.5,0 0.5,0.5 0,0.5 0.5,0.5 0.5,0 1,0 0.5,0 0.5,0.5 0,0.5 0.5,0.5 0.5,0 0.5,0.5 0,0.5 0.5,0.5 0.5,0 1,0 0.5,0 0.5,0.5 0,0.5 0.5,0.5 0.5,0 0.5,0.5 0,0.5 0.5,0.5 0.5,0 1,0 0.5,0 0.5,0.5 0,0.5 0.5,0.5 0.5,0 0.5,0.5 0,0.5 0.5,0.5 0.5,0 1,0 0.5,0 0.5,0.5 0,0.5 0.5,0.5 0.5,0 0.5,0.5 0,0.5 0.5,0.5 0.5,0 1,0 0.5,0 0.5,0.5 0,0.5 0.5,0.5 0.5,0 0.5,0.5 0,0.5 0.5,0.5 0.5,0 1,0 0.5,0 0.5,0.5 0,0.5 0.5,0.5 0.5,0 0.5,0.5 0,0.5 0.5,0.5 0.5,0 1,0 0.5,0 0.5,0.5 0,0.5 0.5,0.5 0.5,0 0.5,0.5 0,0.5 0.5,0.5 0.5,0 1,0 0.5,0 0.5,0.5 0,0.5 0.5,0.5 H 53 V 35.5 36 H 52.5 Q 52,36 52,36.5 52,37 51.5,37 51,37 50.5,37 50,37 50,37.5 50,38 49.5,38 49,38 49,38.5 49,39 48.5,39 48,39 47.5,39 47,39 47,39.5 47,40 46.5,40 46,40 46,40.5 46,41 45.5,41 45,41 44.5,41 44,41 44,41.5 44,42 43.5,42 43,42 43,42.5 43,43 42.5,43 42,43 42,43.5 42,44 41.5,44 41,44 40.5,44 40,44 40,44.5 40,45 39.5,45 39,45 39,45.5 39,46 38.5,46 38,46 37.5,46 37,46 37,46.5 37,47 36.5,47 36,47 36,47.5 36,48 35.5,48 35,48 34.5,48 34,48 34,48.5 34,49 33.5,49 33,49 33,49.5 33,50 32.5,50 32,50 31.5,50 31,50 31,50.5 31,51 30.5,51 30,51 30,51.5 30,52 29.5,52 29,52 28.5,52 28,52 28,52.5 28,53 27.5,53 27,53 27,53.5 27,54 26.5,54 26,54 26,54.5 26,55 25.5,55 25,55 24.5,55 24,55 24,55.5 24,56 23.5,56 23,56 23,56.5 23,57 22.5,57 22,57 21.5,57 21,57 21,57.5 21,58 20.5,58 20,58 20,58.5 20,59 19.5,59 19,59 18.5,59 18,59 18,59.5 18,60 17.5,60 17,60 17,60.5 17,61 16.5,61 16,61 15.5,61 15,61 15,61.5 15,62 14.5,62 14,62 14,62.5 14,63 13.5,63 13,63 12.5,63 12,63 12,63.5 12,64 11.5,64 11,64 11,64.5 11,65 10.5,65 10,65 10,65.5 10,66 9.5,66 9,66 8.5,66 8,66 8,66.5 8,67 7.5,67 7,67 7,67.5 7,68 6.5,68 6,68 5.5,68 5,68 5,68.5 5,69 4.5,69 4,69 4,69.5 4,70 3.5,70 3,70 2.5,70 2,70 2,70.5 V 71 H 1.5 1 V 70.5 Q 1,70 1,69.5 1,69 1,68.5 1,68 1,67.5 1,67 1,66.5 1,66 1,65.5 1,65 1,64.5 1,64 1,63.5 1,63 1,62.5 1,62 1,61.5 1,61 1,60.5 1,60 1,59.5 1,59 1,58.5 1,58 1,57.5 1,57 1,56.5 1,56 1,55.5 1,55 1,54.5 1,54 1,53.5 1,53 1,52.5 1,52 1,51.5 1,51 1,50.5 1,50 1,49.5 1,49 1,48.5 1,48 1,47.5 1,47 1,46.5 1,46 1,45.5 1,45 1,44.5 1,44 1,43.5 1,43 1,42.5 1,42 1,41.5 1,41 1,40.5 1,40 1,39.5 1,39 1,38.5 1,38 1,37.5 1,37 1,36.5 1,36 0.5,36 H 0 V 35.5 35 34.5 34 33.5 33 32.5 32 31.5 31 30.5 30 29.5 29 28.5 28 27.5 27 26.5 26 25.5 25 24.5 24 23.5 23 22.5 22 21.5 21 20.5 20 19.5 19 18.5 18 17.5 17 16.5 16 15.5 15 14.5 14 13.5 13 12.5 12 11.5 11 10.5 10 9.5 9 8.5 8 7.5 7 6.5 6 5.5 5 4.5 4 3.5 3 2.5 2 1.5 1 0.5"
       style="fill:#000000;fill-opacity:1" />
    <path
       id="path6867"
       d="M 1,0.5 V 0 H 1.5 2 2.5 3 3.5 4 4.5 5 5.5 6 6.5 7 7.5 8 8.5 9 9.5 10 10.5 11 11.5 12 12.5 13 13.5 14 14.5 15 15.5 16 16.5 17 17.5 18 18.5 19 19.5 20 20.5 21 21.5 22 22.5 23 23.5 24 24.5 25 25.5 26 26.5 27 27.5 28 28.5 29 29.5 30 30.5 31 31.5 32 32.5 33 33.5 34 34.5 35 35.5 36 36.5 37 37.5 38 38.5 39 39.5 40 40.5 41 41.5 42 42.5 43 43.5 44 44.5 45 45.5 46 46.5 47 47.5 48 48.5 49 49.5 50 50.5 51 51.5 52 52.5 53 V 0.5 1 1.5 2 2.5 3 3.5 4 4.5 5 5.5 6 6.5 7 7.5 8 8.5 9 9.5 10 10.5 11 11.5 12 12.5 13 13.5 14 14.5 15 15.5 16 16.5 17 17.5 18 18.5 19 19.5 20 20.5 21 21.5 22 22.5 23 23.5 24 24.5 25 25.5 26 26.5 27 27.5 28 28.5 29 29.5 30 30.5 31 31.5 32 32.5 33 33.5 34 34.5 35 H 52.5 Q 52,35 52,34.5 52,34 51.5,34 51,34 50.5,34 50,34 50,33.5 50,33 49.5,33 49,33 49,32.5 49,32 48.5,32 48,32 47.5,32 47,32 47,31.5 47,31 46.5,31 46,31 46,30.5 46,30 45.5,30 45,30 44.5,30 44,30 44,29.5 44,29 43.5,29 43,29 43,28.5 43,28 42.5,28 42,28 41.5,28 41,28 41,27.5 41,27 40.5,27 40,27 40,26.5 40,26 39.5,26 39,26 38.5,26 38,26 38,25.5 38,25 37.5,25 37,25 37,24.5 37,24 36.5,24 36,24 35.5,24 35,24 35,23.5 35,23 34.5,23 34,23 34,22.5 34,22 33.5,22 33,22 32.5,22 32,22 32,21.5 32,21 31.5,21 31,21 31,20.5 31,20 30.5,20 30,20 29.5,20 29,20 29,19.5 29,19 28.5,19 28,19 28,18.5 28,18 27.5,18 27,18 26.5,18 26,18 26,17.5 26,17 25.5,17 25,17 25,16.5 25,16 24.5,16 24,16 24,15.5 24,15 23.5,15 23,15 22.5,15 22,15 22,14.5 22,14 21.5,14 21,14 21,13.5 21,13 20.5,13 20,13 19.5,13 19,13 19,12.5 19,12 18.5,12 18,12 18,11.5 18,11 17.5,11 17,11 16.5,11 16,11 16,10.5 16,10 15.5,10 15,10 15,9.5 15,9 14.5,9 14,9 13.5,9 13,9 13,8.5 13,8 12.5,8 12,8 12,7.5 12,7 11.5,7 11,7 10.5,7 10,7 10,6.5 10,6 9.5,6 9,6 9,5.5 9,5 8.5,5 8,5 7.5,5 7,5 7,4.5 7,4 6.5,4 6,4 6,3.5 6,3 5.5,3 5,3 4.5,3 4,3 4,2.5 4,2 3.5,2 3,2 3,1.5 3,1 2.5,1 2,1 1.5,1 1,1 1,0.5"
       style="fill:#000000;fill-opacity:0" />
    <path
       id="path6869"
       d="M 0,36.5 V 36 h 0.5 q 0.5,0 0.5,0.5 0,0.5 0,1 0,0.5 0,1 0,0.5 0,1 0,0.5 0,1 0,0.5 0,1 0,0.5 0,1 0,0.5 0,1 0,0.5 0,1 0,0.5 0,1 0,0.5 0,1 0,0.5 0,1 0,0.5 0,1 0,0.5 0,1 0,0.5 0,1 0,0.5 0,1 0,0.5 0,1 0,0.5 0,1 0,0.5 0,1 0,0.5 0,1 0,0.5 0,1 0,0.5 0,1 0,0.5 0,1 0,0.5 0,1 0,0.5 0,1 0,0.5 0,1 0,0.5 0,1 0,0.5 0,1 0,0.5 0,1 0,0.5 0,1 0,0.5 0,1 0,0.5 0,1 0,0.5 0,1 0,0.5 0,1 0,0.5 0,1 V 71 H 0.5 0 V 70.5 70 69.5 69 68.5 68 67.5 67 66.5 66 65.5 65 64.5 64 63.5 63 62.5 62 61.5 61 60.5 60 59.5 59 58.5 58 57.5 57 56.5 56 55.5 55 54.5 54 53.5 53 52.5 52 51.5 51 50.5 50 49.5 49 48.5 48 47.5 47 46.5 46 45.5 45 44.5 44 43.5 43 42.5 42 41.5 41 40.5 40 39.5 39 38.5 38 37.5 37 36.5"
       style="fill:#000000;fill-opacity:0" />
    <path
       id="path6871"
       d="M 52,36.5 Q 52,36 52.5,36 H 53 V 36.5 37 37.5 38 38.5 39 39.5 40 40.5 41 41.5 42 42.5 43 43.5 44 44.5 45 45.5 46 46.5 47 47.5 48 48.5 49 49.5 50 50.5 51 51.5 52 52.5 53 53.5 54 54.5 55 55.5 56 56.5 57 57.5 58 58.5 59 59.5 60 60.5 61 61.5 62 62.5 63 63.5 64 64.5 65 65.5 66 66.5 67 67.5 68 68.5 69 69.5 70 70.5 71 H 52.5 52 51.5 51 50.5 50 49.5 49 48.5 48 47.5 47 46.5 46 45.5 45 44.5 44 43.5 43 42.5 42 41.5 41 40.5 40 39.5 39 38.5 38 37.5 37 36.5 36 35.5 35 34.5 34 33.5 33 32.5 32 31.5 31 30.5 30 29.5 29 28.5 28 27.5 27 26.5 26 25.5 25 24.5 24 23.5 23 22.5 22 21.5 21 20.5 20 19.5 19 18.5 18 17.5 17 16.5 16 15.5 15 14.5 14 13.5 13 12.5 12 11.5 11 10.5 10 9.5 9 8.5 8 7.5 7 6.5 6 5.5 5 4.5 4 3.5 3 2.5 2 V 70.5 Q 2,70 2.5,70 3,70 3.5,70 4,70 4,69.5 4,69 4.5,69 5,69 5,68.5 5,68 5.5,68 6,68 6.5,68 7,68 7,67.5 7,67 7.5,67 8,67 8,66.5 8,66 8.5,66 9,66 9.5,66 10,66 10,65.5 10,65 10.5,65 11,65 11,64.5 11,64 11.5,64 12,64 12,63.5 12,63 12.5,63 13,63 13.5,63 14,63 14,62.5 14,62 14.5,62 15,62 15,61.5 15,61 15.5,61 16,61 16.5,61 17,61 17,60.5 17,60 17.5,60 18,60 18,59.5 18,59 18.5,59 19,59 19.5,59 20,59 20,58.5 20,58 20.5,58 21,58 21,57.5 21,57 21.5,57 22,57 22.5,57 23,57 23,56.5 23,56 23.5,56 24,56 24,55.5 24,55 24.5,55 25,55 25.5,55 26,55 26,54.5 26,54 26.5,54 27,54 27,53.5 27,53 27.5,53 28,53 28,52.5 28,52 28.5,52 29,52 29.5,52 30,52 30,51.5 30,51 30.5,51 31,51 31,50.5 31,50 31.5,50 32,50 32.5,50 33,50 33,49.5 33,49 33.5,49 34,49 34,48.5 34,48 34.5,48 35,48 35.5,48 36,48 36,47.5 36,47 36.5,47 37,47 37,46.5 37,46 37.5,46 38,46 38.5,46 39,46 39,45.5 39,45 39.5,45 40,45 40,44.5 40,44 40.5,44 41,44 41.5,44 42,44 42,43.5 42,43 42.5,43 43,43 43,42.5 43,42 43.5,42 44,42 44,41.5 44,41 44.5,41 45,41 45.5,41 46,41 46,40.5 46,40 46.5,40 47,40 47,39.5 47,39 47.5,39 48,39 48.5,39 49,39 49,38.5 49,38 49.5,38 50,38 50,37.5 50,37 50.5,37 q 0.5,0 1,0 0.5,0 0.5,-0.5"
       style="fill:#000000;fill-opacity:0" />
  </g>
</svg>
